<svg xmlns="http://www.w3.org/2000/svg" width="20" height="20" viewBox="0 0 20 20">
  <g id="comm-17_chat" transform="translate(0)">
    <path id="comm-17_chat-2" data-name="comm-17_chat" d="M5.17.529A4.635,4.635,0,0,0,.54,5.169l-.01,6.413a4.616,4.616,0,0,0,4.3,4.607V20.2a.333.333,0,0,0,.57.236l4.2-4.209H15.9a4.632,4.632,0,0,0,4.63-4.64V5.169A4.624,4.624,0,0,0,15.91.529ZM7.2,7.376a1,1,0,1,1-1,1A1,1,0,0,1,7.2,7.376Zm3.333,0a1,1,0,1,1-1,1A1.005,1.005,0,0,1,10.529,7.376Zm3.334,0a1,1,0,1,1-1,1A1.005,1.005,0,0,1,13.863,7.376Z" transform="translate(-0.529 -0.529)" fill="#fff"/>
  </g>
</svg>
