<svg id="Programs_Icon" data-name="Programs Icon" xmlns="http://www.w3.org/2000/svg" width="20" height="20" viewBox="0 0 20 20">
  <g id="Group_27" data-name="Group 27" transform="translate(2.344 9.453)">
    <path id="Path_662" data-name="Path 662" d="M60,242v10.547h3.516V242Z" transform="translate(-60 -242)" fill="#fff"/>
  </g>
  <g id="Group_28" data-name="Group 28" transform="translate(14.141 9.453)">
    <path id="Path_663" data-name="Path 663" d="M362,242v10.547h2.93V242Z" transform="translate(-362 -242)" fill="#fff"/>
  </g>
  <path id="Path_664" data-name="Path 664" d="M467,272h1.758v8.2H467Z" transform="translate(-448.758 -261.375)" fill="#fff"/>
  <path id="Path_665" data-name="Path 665" d="M0,272H1.172v8.2H0Z" transform="translate(0 -261.375)" fill="#fff"/>
  <g id="Group_29" data-name="Group 29" transform="translate(7.031 12.969)">
    <path id="Path_666" data-name="Path 666" d="M180,332h5.938v3.516H180Z" transform="translate(-180 -332)" fill="#fff"/>
  </g>
 </svg>
