<svg id="Programs_Icon" data-name="Programs Icon" xmlns="http://www.w3.org/2000/svg" width="20" height="20" viewBox="0 0 20 20">
  <g id="Group_27" data-name="Group 27" transform="translate(2.344 9.453)">
    <path id="Path_662" data-name="Path 662" d="M60,242v10.547h3.516V242Z" transform="translate(-60 -242)" fill="#fff"/>
  </g>
  <g id="Group_28" data-name="Group 28" transform="translate(14.141 9.453)">
    <path id="Path_663" data-name="Path 663" d="M362,242v10.547h2.93V242Z" transform="translate(-362 -242)" fill="#fff"/>
  </g>
  <path id="Path_664" data-name="Path 664" d="M467,272h1.758v8.2H467Z" transform="translate(-448.758 -261.375)" fill="#fff"/>
  <path id="Path_665" data-name="Path 665" d="M0,272H1.172v8.2H0Z" transform="translate(0 -261.375)" fill="#fff"/>
  <g id="Group_29" data-name="Group 29" transform="translate(7.031 12.969)">
    <path id="Path_666" data-name="Path 666" d="M180,332h5.938v3.516H180Z" transform="translate(-180 -332)" fill="#fff"/>
  </g>
  <g id="Group_30" data-name="Group 30" transform="translate(4.141)">
    <path id="Path_667" data-name="Path 667" d="M114.5,0a3.3,3.3,0,0,0-2.637,1.342A3.244,3.244,0,0,0,106,3.521c0,2.335,2.022,3.97,5.859,7.223,3.474-3.061,5.859-4.694,5.859-7.223A3.329,3.329,0,0,0,114.5,0Zm-2.637,7.274L109.687,5.1l.829-.829,1.343,1.344,1.929-1.93.829.829Z" transform="translate(-106)" fill="#fff"/>
  </g>
</svg>
