<svg xmlns="http://www.w3.org/2000/svg" width="20" height="20" viewBox="0 0 20 20">
  <g id="question" transform="translate(-3 -13)">
    <path id="Path_669" data-name="Path 669" d="M13,3A10,10,0,1,0,23,13,10.012,10.012,0,0,0,13,3Zm0,15.385a.769.769,0,1,1,.769-.769A.769.769,0,0,1,13,18.385Zm.769-4.712v.866a.769.769,0,0,1-1.538,0V13A.769.769,0,0,1,13,12.231a1.538,1.538,0,1,0-1.538-1.538.769.769,0,0,1-1.538,0,3.077,3.077,0,1,1,3.846,2.98Z" transform="translate(0 10)" fill="#fff"/>
  </g>
</svg>
