<svg xmlns="http://www.w3.org/2000/svg" width="20" height="15.297" viewBox="0 0 20 15.297">
  <g id="video-call" transform="translate(0 -63.909)">
    <g id="Group_31" data-name="Group 31" transform="translate(0 63.909)">
      <path id="Path_668" data-name="Path 668" d="M20,67.177a1.367,1.367,0,0,0-.6-1.207,1.244,1.244,0,0,0-1.251-.1l-2.78.981v-.981a1.91,1.91,0,0,0-1.853-1.962H1.853A1.91,1.91,0,0,0,0,65.871V77.244a1.91,1.91,0,0,0,1.853,1.962H13.447A1.91,1.91,0,0,0,15.3,77.244v-.981l2.78.981a1.251,1.251,0,0,0,1.754-.521A1.428,1.428,0,0,0,20,76.008V67.177Zm-7.692,9.891h-.232a10.155,10.155,0,0,1-2.474-.4,10.321,10.321,0,0,1-6.867-7.281,10.067,10.067,0,0,1-.371-2.61V66.5a.431.431,0,0,1,.408-.451H6.246a.679.679,0,0,1,.528.7V69a.67.67,0,0,1-.639.7H6.116a4.248,4.248,0,0,0,3.216,3.169.707.707,0,0,1,.676-.491h2.039a.636.636,0,0,1,.639.5.85.85,0,0,1,0,.167l.019,3.572A.432.432,0,0,1,12.307,77.067Z" transform="translate(0 -63.909)" fill="#fff"/>
    </g>
  </g>
</svg>
